{
  "sections": {
    "main": {
      "type": "main-page",
      "disabled": true,
      "settings": {}
    },
    "1628240573792701c3": {
      "type": "rich-text",
      "blocks": {
        "1628240573792701c3-0": {
          "type": "heading",
          "settings": {
            "heading": "Hi there, We’re ERic & Vanessa",
            "heading_size": "medium"
          }
        },
        "1628240573792701c3-1": {
          "type": "text",
          "settings": {
            "text": "<p>The Founders of Cali Weights<strong><br\/><br\/><br\/>“we set out to make the most fashionable weighted jewelry in the world because wearable fitness accessories only work if you actually want to wear them”<\/strong><\/p><p><\/p><p>Both of us quickly found out early in our entrepreneurial careers that finding time to exercise, take care of yourself, and making sure you look great isn't always easy.<br\/><br\/>We all know it's important to do. We would try our best to take a quick jog in the morning and prioritize our well-being on the weekends, but but fitness and self-care often took a backseat.<\/p>"
          }
        }
      },
      "block_order": [
        "1628240573792701c3-0",
        "1628240573792701c3-1"
      ],
      "settings": {
        "color_scheme": "background-1",
        "full_width": true
      }
    },
    "16282406142dc20d0d": {
      "type": "rich-text",
      "blocks": {
        "16282406142dc20d0d-1": {
          "type": "text",
          "settings": {
            "text": "<p>We knew there had to be <strong>a solution for those who wanted to look great, feel good, and stay active,<\/strong> while also balancing a busy schedule.<\/p>"
          }
        }
      },
      "block_order": [
        "16282406142dc20d0d-1"
      ],
      "settings": {
        "color_scheme": "background-1",
        "full_width": true
      }
    },
    "16282407411b6c937f": {
      "type": "image-banner",
      "blocks": {
        "16282407411b6c937f-0": {
          "type": "heading",
          "settings": {
            "heading": "Our solution = Cali Weights"
          }
        },
        "16282407411b6c937f-1": {
          "type": "text",
          "settings": {
            "text": "Wear one  -  Pair them together  -  WOrkout  -  Look & Feel Good"
          }
        },
        "16282407411b6c937f-2": {
          "type": "buttons",
          "settings": {
            "button_label_1": "SHOP NOW",
            "button_link_1": "shopify:\/\/products\/silicone-weights-black-bone",
            "button_style_secondary_1": false,
            "button_label_2": "",
            "button_link_2": "",
            "button_style_secondary_2": false
          }
        }
      },
      "block_order": [
        "16282407411b6c937f-0",
        "16282407411b6c937f-1",
        "16282407411b6c937f-2"
      ],
      "settings": {
        "image": "shopify:\/\/shop_images\/1_39_1500x_d9542636-9e0c-4b67-9325-7dc0511aca01.png",
        "desktop_text_box_position": "center",
        "color_scheme": "background-1",
        "stack_images_on_mobile": true,
        "adapt_height_first_image": false
      }
    },
    "1628752151fbc39633": {
      "type": "image-banner",
      "settings": {
        "image": "shopify:\/\/shop_images\/image_3_1100x_058d6538-9934-48db-84b0-05ac83f48819.png",
        "desktop_text_box_position": "center",
        "color_scheme": "background-1",
        "stack_images_on_mobile": true,
        "adapt_height_first_image": true
      }
    },
    "1628782247ea5f42ce": {
      "type": "multicolumn",
      "blocks": {
        "1628782247ea5f42ce-0": {
          "type": "column",
          "settings": {
            "image": "shopify:\/\/shop_images\/one.png",
            "title": "",
            "text": "<p>Smooth to the touch, resilient and sweat resistant. This silicone provides comfort and durability without scratching or chafing.<\/p>"
          }
        },
        "1628782247ea5f42ce-1": {
          "type": "column",
          "settings": {
            "image": "shopify:\/\/shop_images\/two_1ec4f555-2b1f-4ce1-b34a-864b5774a61b.png",
            "title": "",
            "text": "<p>Molded to fit the exact shape and weight targets. It’s durable and cost effective, which helps us pass the savings onto you!<\/p>"
          }
        },
        "1628782247ea5f42ce-2": {
          "type": "column",
          "settings": {
            "image": "shopify:\/\/shop_images\/three.png",
            "title": "",
            "text": "<p>It's durable for any routine and flexible for the body. Our elastic is strong, soft, breathable and pleasant to the touch.<\/p>"
          }
        }
      },
      "block_order": [
        "1628782247ea5f42ce-0",
        "1628782247ea5f42ce-1",
        "1628782247ea5f42ce-2"
      ],
      "settings": {
        "title": "",
        "image_width": "full",
        "image_ratio": "adapt",
        "column_alignment": "left",
        "background_style": "none",
        "button_label": "",
        "button_link": "",
        "swipe_on_mobile": false
      }
    },
    "162995276382b56ce6": {
      "type": "instafeed",
      "settings": {
        "heading_font": "helvetica_n4",
        "heading_size": 20,
        "feed_width": 100,
        "html_area": "<h2 class=\"title\"><center>DON’T TAKE OUR WORD FOR IT<h2>\n<\/h2>\n<p>\nWE LOVE IT WHEN OUR CUSTOMERS SHARE THEIR LOVE FOR CALI WEIGHTS<\/p>\n<p><\/p>\n<\/center><\/h2>"
      }
    }
  },
  "order": [
    "main",
    "1628240573792701c3",
    "16282406142dc20d0d",
    "16282407411b6c937f",
    "1628752151fbc39633",
    "1628782247ea5f42ce",
    "162995276382b56ce6"
  ]
}